module gitlab.com/kelwang/gorm

go 1.12

require (
	github.com/denisenkom/go-mssqldb v0.0.0-20191124224453-732737034ffd
	github.com/erikstmartin/go-testdb v0.0.0-20160219214506-8d10e4a1bae5
	github.com/go-sql-driver/mysql v1.5.0
	github.com/jinzhu/inflection v1.0.0
	github.com/jinzhu/now v1.0.1
	github.com/lib/pq v1.1.1
	github.com/mattn/go-sqlite3 v1.14.16
	modernc.org/sqlite v1.27.0
)
